{
  "content": [{
    "status": "Valid",
    "creator": "build-in",
    "modifier": "build-in",
    "createdDate": 1543468850000,
    "modifiedDate": 1550644214000,
    "version": 66,
    "name": "administrator",
    "menus": [{
      "status": "Valid",
      "id": "1000",
      "name": "Project Management"
    }, {
      "status": "Valid",
      "id": "2000",
      "name": "System Management"
    }]
  }, {
    "status": "Valid",
    "creator": "build-in",
    "modifier": "build-in",
    "createdDate": 1543468850000,
    "modifiedDate": 1550644214000,
    "version": 66,
    "name": "user",
    "menus": [{
      "status": "Valid",
      "id": "1000",
      "name": "Project Management"
    }, {
      "status": "Valid",
      "id": "2010",
      "name": "System Management"
    }]
  },{
    "status": "Valid",
    "creator": "build-in",
    "modifier": "build-in",
    "createdDate": 1543468850000,
    "modifiedDate": 1550644214000,
    "version": 66,
    "name": "administrator8W",
    "menus": [{
      "status": "Valid",
      "id": "1000",
      "name": "Project Management"
    }, {
      "status": "Valid",
      "id": "2000",
      "name": "System Management"
    }]
  },{
    "status": "Valid",
    "creator": "build-in",
    "modifier": "build-in",
    "createdDate": 1543468850000,
    "modifiedDate": 1550644214000,
    "version": 66,
    "name": "administrator7",
    "menus": [{
      "status": "Valid",
      "id": "1000",
      "name": "Project Management"
    }, {
      "status": "Valid",
      "id": "2000",
      "name": "System Management"
    }]
  },{
    "status": "Valid",
    "creator": "build-in",
    "modifier": "build-in",
    "createdDate": 1543468850000,
    "modifiedDate": 1550644214000,
    "version": 66,
    "name": "administrator6",
    "menus": [{
      "status": "Valid",
      "id": "1000",
      "name": "Project Management"
    }, {
      "status": "Valid",
      "id": "2000",
      "name": "System Management"
    }]
  },{
    "status": "Valid",
    "creator": "build-in",
    "modifier": "build-in",
    "createdDate": 1543468850000,
    "modifiedDate": 1550644214000,
    "version": 66,
    "name": "administrator5",
    "menus": [{
      "status": "Valid",
      "id": "1000",
      "name": "Project Management"
    }, {
      "status": "Valid",
      "id": "2000",
      "name": "System Management"
    }]
  },{
    "status": "Valid",
    "creator": "build-in",
    "modifier": "build-in",
    "createdDate": 1543468850000,
    "modifiedDate": 1550644214000,
    "version": 66,
    "name": "administrator4",
    "menus": [{
      "status": "Valid",
      "id": "1000",
      "name": "Project Management"
    }, {
      "status": "Valid",
      "id": "2000",
      "name": "System Management"
    }]
  },{
    "status": "Valid",
    "creator": "build-in",
    "modifier": "build-in",
    "createdDate": 1543468850000,
    "modifiedDate": 1550644214000,
    "version": 66,
    "name": "administrator3",
    "menus": [{
      "status": "Valid",
      "id": "1000",
      "name": "Project Management"
    }, {
      "status": "Valid",
      "id": "2000",
      "name": "System Management"
    }]
  },{
    "status": "Valid",
    "creator": "build-in",
    "modifier": "build-in",
    "createdDate": 1543468850000,
    "modifiedDate": 1550644214000,
    "version": 66,
    "name": "administrator2",
    "menus": [{
      "status": "Valid",
      "id": "1000",
      "name": "Project Management"
    }, {
      "status": "Valid",
      "id": "2000",
      "name": "System Management"
    }]
  },{
    "status": "Valid",
    "creator": "build-in",
    "modifier": "build-in",
    "createdDate": 1543468850000,
    "modifiedDate": 1550644214000,
    "version": 66,
    "name": "administrator1",
    "menus": [{
      "status": "Valid",
      "id": "1000",
      "name": "Project Management"
    }, {
      "status": "Valid",
      "id": "2000",
      "name": "System Management"
    }]
  }],
  "totalPages": 2,
  "totalElements": 12,
  "last": false,
  "number": 0,
  "size": 10,
  "sort": null,
  "numberOfElements": 12,
  "first": true
}
